-------------------------------------------------------------------------------
Test set: foo.HelloAppEngineTest
-------------------------------------------------------------------------------
Tests run: 1, Failures: 0, Errors: 0, Skipped: 0, Time elapsed: 0.341 s - in foo.HelloAppEngineTest
